{

  "project_info": {
    "project_number": "397664418519",
    "firebase_url": "https://drhome-1544575261424-38c20.firebaseio.com",
    "project_id": " drhome-1544575261424-38c20",
    "storage_bucket": " drhome-1544575261424-38c20.appspot.com"
  },
  "client": [
    {
      "client_info": {
        "mobilesdk_app_id": "1:397664418519:android:d55fd6f2e8d0301e",
        "android_client_info": {
          "package_name": "com.dr.doctorathome"
        }
      },
      "oauth_client": [
        {
          "client_id": "397664418519-ivhu27d8rjoho2njbt2tkc5em3ah89dk.apps.googleusercontent.com",
          "client_type": 1,
          "android_info": {
            "package_name": "com.dr.doctorathome",
            "certificate_hash": "42a9bd769038ec6b3778a0e1cea7dbf1dc4cb479"
          }
        },
        {
          "client_id": "397664418519-al11q76fvomif2eej0l2oqtf9h8h2gku.apps.googleusercontent.com",
          "client_type": 3
        }
      ],
      "api_key": [
        {
          "current_key": "AIzaSyATEzKzMhQzOQITBNv3az0OWvPPBrHhdiI"
        }
      ],
      "services": {
        "appinvite_service": {
          "other_platform_oauth_client": [
            {
              "client_id": "397664418519-al11q76fvomif2eej0l2oqtf9h8h2gku.apps.googleusercontent.com",
              "client_type": 3
            },
            {
              "client_id": "397664418519-qoj5q1igq988mf1vmvkvnrsk6bivgruq.apps.googleusercontent.com",
              "client_type": 2,
              "ios_info": {
                "bundle_id": "com.beetleware.drathome"
              }
            }
          ]
        }
      }
    },
    {
      "client_info": {
        "mobilesdk_app_id": "1:397664418519:android:52ce5a163c774a90",
        "android_client_info": {
          "package_name": "dev.pro.doctor.home"
        }
      },
      "oauth_client": [
        {
          "client_id": "397664418519-inpg01mbnf2o130bgokjgie02hovur0i.apps.googleusercontent.com",
          "client_type": 1,
          "android_info": {
            "package_name": "dev.pro.doctor.home",
            "certificate_hash": "861399cdd954f06a24ab3a2290dfc2ba886ce1fb"
          }
        },
        {
          "client_id": "397664418519-al11q76fvomif2eej0l2oqtf9h8h2gku.apps.googleusercontent.com",
          "client_type": 3
        }
      ],
      "api_key": [
        {
          "current_key": "AIzaSyATEzKzMhQzOQITBNv3az0OWvPPBrHhdiI"
        }
      ],
      "services": {
        "appinvite_service": {
          "other_platform_oauth_client": [
            {
              "client_id": "397664418519-al11q76fvomif2eej0l2oqtf9h8h2gku.apps.googleusercontent.com",
              "client_type": 3
            },
            {
              "client_id": "397664418519-qoj5q1igq988mf1vmvkvnrsk6bivgruq.apps.googleusercontent.com",
              "client_type": 2,
              "ios_info": {
                "bundle_id": "com.beetleware.drathome"
              }
            }
          ]
        }
      }
    },
    {
      "client_info": {
        "mobilesdk_app_id": "1:397664418519:android:c41474e4a09edf70fd8e92",
        "android_client_info": {
          "package_name": "dr.doctorathome"
        }
      },
      "oauth_client": [
        {
          "client_id": "397664418519-a5dvsccpeqjqe4p29oh4tuvu4vb4j520.apps.googleusercontent.com",
          "client_type": 1,
          "android_info": {
            "package_name": "dr.doctorathome",
            "certificate_hash": "5e6e9a3766df05d7aeb7133ac949f13906dac9f4"
          }
        },
        {
          "client_id": "397664418519-al11q76fvomif2eej0l2oqtf9h8h2gku.apps.googleusercontent.com",
          "client_type": 3
        }
      ],
      "api_key": [
        {
          "current_key": "AIzaSyATEzKzMhQzOQITBNv3az0OWvPPBrHhdiI"
        }
      ],
      "services": {
        "appinvite_service": {
          "other_platform_oauth_client": [
            {
              "client_id": "397664418519-al11q76fvomif2eej0l2oqtf9h8h2gku.apps.googleusercontent.com",
              "client_type": 3
            },
            {
              "client_id": "397664418519-qoj5q1igq988mf1vmvkvnrsk6bivgruq.apps.googleusercontent.com",
              "client_type": 2,
              "ios_info": {
                "bundle_id": "com.beetleware.drathome"
              }
            }
          ]
        }
      }
    }
  ],
  "configuration_version": "1"
}